…
### Final dataset

``` r
FinalBetancesData = 
  CodedData_VariablesofInterest %>% 
  select(Age, Age_Category, Gender, Gender_Coded, Education_Group, Income_Group, Race, Smoke, Chronic_Disease, HousingSatisfactionScore, MCS12, PCS12, total_PSS_score, DelayedRent) 

FinalBetancesData %>% 
    rename(
    Smoking_Status = Smoke,
    Age_Group = Age_Category 
  )
```

    ## # A tibble: 124 x 14
    ##      Age Age_Group Gender Gender_Coded Education_Group Income_Group Race 
    ##    <dbl> <chr>     <chr>  <fct>        <fct>           <fct>        <fct>
    ##  1    72 65+       Female 1            High School/G.… 1            Hisp…
    ##  2    51 45-64     Female 1            High School/G.… 1            Hisp…
    ##  3    47 45-64     Female 1            Less than High… 1            Non-…
    ##  4    59 45-64     Other… Null         High School/G.… 1            Non-…
    ##  5    28 25-44     Female 1            High School/G.… 1            Non-…
    ##  6    49 45-64     Female 1            Less than High… 3            Hisp…
    ##  7    NA <NA>      Female 1            Less than High… 1            Hisp…
    ##  8    36 25-44     Female 1            High School/G.… 1            Hisp…
    ##  9    49 45-64     Female 1            Less than High… <NA>         Hisp…
    ## 10    61 45-64     Male   0            Post High Scho… 2            Hisp…
    ## # … with 114 more rows, and 7 more variables: Smoking_Status <fct>,
    ## #   Chronic_Disease <fct>, HousingSatisfactionScore <dbl>, MCS12 <dbl>,
    ## #   PCS12 <dbl>, total_PSS_score <dbl>, DelayedRent <fct>
…
